{
  "profiles": {
    "Authorization.DbMigrator": {
      "commandName": "Project",
      "environmentVariables": {
        "DOTNET_ENVIRONMENT": "Development"
      },
      "dotnetRunMessages": true
    },
    "Docker": {
      "commandName": "Docker"
    }
  }
}